<?xml version="1.0" encoding="UTF-8"?>
<testsuite xmlns:xsi="http://www.w3.org/2001/XMLSchema-instance" xsi:noNamespaceSchemaLocation="https://maven.apache.org/surefire/maven-surefire-plugin/xsd/surefire-test-report-3.0.xsd" version="3.0" name="TestSuite" time="17.712" tests="10" errors="0" skipped="0" failures="0">
  <properties>
    <property name="java.specification.version" value="21"/>
    <property name="sun.cpu.isalist" value="amd64"/>
    <property name="sun.jnu.encoding" value="Cp1252"/>
    <property name="java.class.path" value="C:\Users\MangalamadakaSreenat\eclipse-workspace\GraphQLPractice\target\test-classes;C:\Users\MangalamadakaSreenat\eclipse-workspace\GraphQLPractice\target\classes;C:\Users\MangalamadakaSreenat\.m2\repository\io\rest-assured\rest-assured\5.3.0\rest-assured-5.3.0.jar;C:\Users\MangalamadakaSreenat\.m2\repository\org\apache\groovy\groovy\4.0.6\groovy-4.0.6.jar;C:\Users\MangalamadakaSreenat\.m2\repository\org\apache\groovy\groovy-xml\4.0.6\groovy-xml-4.0.6.jar;C:\Users\MangalamadakaSreenat\.m2\repository\org\apache\httpcomponents\httpclient\4.5.13\httpclient-4.5.13.jar;C:\Users\MangalamadakaSreenat\.m2\repository\org\apache\httpcomponents\httpcore\4.4.13\httpcore-4.4.13.jar;C:\Users\MangalamadakaSreenat\.m2\repository\commons-logging\commons-logging\1.2\commons-logging-1.2.jar;C:\Users\MangalamadakaSreenat\.m2\repository\org\apache\httpcomponents\httpmime\4.5.13\httpmime-4.5.13.jar;C:\Users\MangalamadakaSreenat\.m2\repository\org\hamcrest\hamcrest\2.1\hamcrest-2.1.jar;C:\Users\MangalamadakaSreenat\.m2\repository\org\ccil\cowan\tagsoup\tagsoup\1.2.1\tagsoup-1.2.1.jar;C:\Users\MangalamadakaSreenat\.m2\repository\io\rest-assured\xml-path\5.3.0\xml-path-5.3.0.jar;C:\Users\MangalamadakaSreenat\.m2\repository\org\apache\commons\commons-lang3\3.11\commons-lang3-3.11.jar;C:\Users\MangalamadakaSreenat\.m2\repository\io\rest-assured\json-path\5.3.0\json-path-5.3.0.jar;C:\Users\MangalamadakaSreenat\.m2\repository\org\apache\groovy\groovy-json\4.0.6\groovy-json-4.0.6.jar;C:\Users\MangalamadakaSreenat\.m2\repository\io\rest-assured\rest-assured-common\5.3.0\rest-assured-common-5.3.0.jar;C:\Users\MangalamadakaSreenat\.m2\repository\io\rest-assured\json-schema-validator\5.3.0\json-schema-validator-5.3.0.jar;C:\Users\MangalamadakaSreenat\.m2\repository\com\github\java-json-tools\json-schema-validator\2.2.14\json-schema-validator-2.2.14.jar;C:\Users\MangalamadakaSreenat\.m2\repository\com\google\guava\guava\28.2-android\guava-28.2-android.jar;C:\Users\MangalamadakaSreenat\.m2\repository\com\google\guava\failureaccess\1.0.1\failureaccess-1.0.1.jar;C:\Users\MangalamadakaSreenat\.m2\repository\com\google\guava\listenablefuture\9999.0-empty-to-avoid-conflict-with-guava\listenablefuture-9999.0-empty-to-avoid-conflict-with-guava.jar;C:\Users\MangalamadakaSreenat\.m2\repository\org\checkerframework\checker-compat-qual\2.5.5\checker-compat-qual-2.5.5.jar;C:\Users\MangalamadakaSreenat\.m2\repository\com\google\errorprone\error_prone_annotations\2.3.4\error_prone_annotations-2.3.4.jar;C:\Users\MangalamadakaSreenat\.m2\repository\com\google\j2objc\j2objc-annotations\1.3\j2objc-annotations-1.3.jar;C:\Users\MangalamadakaSreenat\.m2\repository\com\github\java-json-tools\jackson-coreutils-equivalence\1.0\jackson-coreutils-equivalence-1.0.jar;C:\Users\MangalamadakaSreenat\.m2\repository\com\fasterxml\jackson\core\jackson-databind\2.11.0\jackson-databind-2.11.0.jar;C:\Users\MangalamadakaSreenat\.m2\repository\com\fasterxml\jackson\core\jackson-annotations\2.11.0\jackson-annotations-2.11.0.jar;C:\Users\MangalamadakaSreenat\.m2\repository\com\github\java-json-tools\jackson-coreutils\2.0\jackson-coreutils-2.0.jar;C:\Users\MangalamadakaSreenat\.m2\repository\com\github\java-json-tools\msg-simple\1.2\msg-simple-1.2.jar;C:\Users\MangalamadakaSreenat\.m2\repository\com\github\java-json-tools\btf\1.3\btf-1.3.jar;C:\Users\MangalamadakaSreenat\.m2\repository\com\github\java-json-tools\json-schema-core\1.2.14\json-schema-core-1.2.14.jar;C:\Users\MangalamadakaSreenat\.m2\repository\com\github\java-json-tools\uri-template\0.10\uri-template-0.10.jar;C:\Users\MangalamadakaSreenat\.m2\repository\org\mozilla\rhino\1.7.7.2\rhino-1.7.7.2.jar;C:\Users\MangalamadakaSreenat\.m2\repository\com\sun\mail\mailapi\1.6.2\mailapi-1.6.2.jar;C:\Users\MangalamadakaSreenat\.m2\repository\joda-time\joda-time\2.10.5\joda-time-2.10.5.jar;C:\Users\MangalamadakaSreenat\.m2\repository\com\googlecode\libphonenumber\libphonenumber\8.11.1\libphonenumber-8.11.1.jar;C:\Users\MangalamadakaSreenat\.m2\repository\com\google\code\findbugs\jsr305\3.0.2\jsr305-3.0.2.jar;C:\Users\MangalamadakaSreenat\.m2\repository\net\sf\jopt-simple\jopt-simple\5.0.4\jopt-simple-5.0.4.jar;C:\Users\MangalamadakaSreenat\.m2\repository\com\googlecode\json-simple\json-simple\1.1.1\json-simple-1.1.1.jar;C:\Users\MangalamadakaSreenat\.m2\repository\junit\junit\4.10\junit-4.10.jar;C:\Users\MangalamadakaSreenat\.m2\repository\org\hamcrest\hamcrest-core\1.1\hamcrest-core-1.1.jar;C:\Users\MangalamadakaSreenat\.m2\repository\com\fasterxml\jackson\core\jackson-core\2.17.0\jackson-core-2.17.0.jar;C:\Users\MangalamadakaSreenat\.m2\repository\org\apache\poi\poi\5.2.5\poi-5.2.5.jar;C:\Users\MangalamadakaSreenat\.m2\repository\commons-codec\commons-codec\1.16.0\commons-codec-1.16.0.jar;C:\Users\MangalamadakaSreenat\.m2\repository\org\apache\commons\commons-collections4\4.4\commons-collections4-4.4.jar;C:\Users\MangalamadakaSreenat\.m2\repository\org\apache\commons\commons-math3\3.6.1\commons-math3-3.6.1.jar;C:\Users\MangalamadakaSreenat\.m2\repository\commons-io\commons-io\2.15.0\commons-io-2.15.0.jar;C:\Users\MangalamadakaSreenat\.m2\repository\com\zaxxer\SparseBitSet\1.3\SparseBitSet-1.3.jar;C:\Users\MangalamadakaSreenat\.m2\repository\org\apache\logging\log4j\log4j-api\2.21.1\log4j-api-2.21.1.jar;C:\Users\MangalamadakaSreenat\.m2\repository\org\apache\poi\poi-ooxml\5.2.5\poi-ooxml-5.2.5.jar;C:\Users\MangalamadakaSreenat\.m2\repository\org\apache\poi\poi-ooxml-lite\5.2.5\poi-ooxml-lite-5.2.5.jar;C:\Users\MangalamadakaSreenat\.m2\repository\org\apache\xmlbeans\xmlbeans\5.2.0\xmlbeans-5.2.0.jar;C:\Users\MangalamadakaSreenat\.m2\repository\org\apache\commons\commons-compress\1.25.0\commons-compress-1.25.0.jar;C:\Users\MangalamadakaSreenat\.m2\repository\com\github\virtuald\curvesapi\1.08\curvesapi-1.08.jar;C:\Users\MangalamadakaSreenat\.m2\repository\org\testng\testng\7.7.1\testng-7.7.1.jar;C:\Users\MangalamadakaSreenat\.m2\repository\org\slf4j\slf4j-api\1.7.36\slf4j-api-1.7.36.jar;C:\Users\MangalamadakaSreenat\.m2\repository\com\beust\jcommander\1.82\jcommander-1.82.jar;C:\Users\MangalamadakaSreenat\.m2\repository\org\webjars\jquery\3.6.1\jquery-3.6.1.jar;"/>
    <property name="java.vm.vendor" value="Oracle Corporation"/>
    <property name="sun.arch.data.model" value="64"/>
    <property name="user.variant" value=""/>
    <property name="java.vendor.url" value="https://java.oracle.com/"/>
    <property name="user.timezone" value="Asia/Calcutta"/>
    <property name="os.name" value="Windows 11"/>
    <property name="java.vm.specification.version" value="21"/>
    <property name="sun.java.launcher" value="SUN_STANDARD"/>
    <property name="user.country" value="IN"/>
    <property name="sun.boot.library.path" value="C:\Program Files\Java\jdk-21\bin"/>
    <property name="sun.java.command" value="C:\Users\MangalamadakaSreenat\AppData\Local\Temp\surefire16041507773217144198\surefirebooter-20250926130418254_3.jar C:\Users\MangalamadakaSreenat\AppData\Local\Temp\surefire16041507773217144198 2025-09-26T13-04-17_335-jvmRun1 surefire-20250926130418254_1tmp surefire_0-20250926130418254_2tmp"/>
    <property name="jdk.debug" value="release"/>
    <property name="surefire.test.class.path" value="C:\Users\MangalamadakaSreenat\eclipse-workspace\GraphQLPractice\target\test-classes;C:\Users\MangalamadakaSreenat\eclipse-workspace\GraphQLPractice\target\classes;C:\Users\MangalamadakaSreenat\.m2\repository\io\rest-assured\rest-assured\5.3.0\rest-assured-5.3.0.jar;C:\Users\MangalamadakaSreenat\.m2\repository\org\apache\groovy\groovy\4.0.6\groovy-4.0.6.jar;C:\Users\MangalamadakaSreenat\.m2\repository\org\apache\groovy\groovy-xml\4.0.6\groovy-xml-4.0.6.jar;C:\Users\MangalamadakaSreenat\.m2\repository\org\apache\httpcomponents\httpclient\4.5.13\httpclient-4.5.13.jar;C:\Users\MangalamadakaSreenat\.m2\repository\org\apache\httpcomponents\httpcore\4.4.13\httpcore-4.4.13.jar;C:\Users\MangalamadakaSreenat\.m2\repository\commons-logging\commons-logging\1.2\commons-logging-1.2.jar;C:\Users\MangalamadakaSreenat\.m2\repository\org\apache\httpcomponents\httpmime\4.5.13\httpmime-4.5.13.jar;C:\Users\MangalamadakaSreenat\.m2\repository\org\hamcrest\hamcrest\2.1\hamcrest-2.1.jar;C:\Users\MangalamadakaSreenat\.m2\repository\org\ccil\cowan\tagsoup\tagsoup\1.2.1\tagsoup-1.2.1.jar;C:\Users\MangalamadakaSreenat\.m2\repository\io\rest-assured\xml-path\5.3.0\xml-path-5.3.0.jar;C:\Users\MangalamadakaSreenat\.m2\repository\org\apache\commons\commons-lang3\3.11\commons-lang3-3.11.jar;C:\Users\MangalamadakaSreenat\.m2\repository\io\rest-assured\json-path\5.3.0\json-path-5.3.0.jar;C:\Users\MangalamadakaSreenat\.m2\repository\org\apache\groovy\groovy-json\4.0.6\groovy-json-4.0.6.jar;C:\Users\MangalamadakaSreenat\.m2\repository\io\rest-assured\rest-assured-common\5.3.0\rest-assured-common-5.3.0.jar;C:\Users\MangalamadakaSreenat\.m2\repository\io\rest-assured\json-schema-validator\5.3.0\json-schema-validator-5.3.0.jar;C:\Users\MangalamadakaSreenat\.m2\repository\com\github\java-json-tools\json-schema-validator\2.2.14\json-schema-validator-2.2.14.jar;C:\Users\MangalamadakaSreenat\.m2\repository\com\google\guava\guava\28.2-android\guava-28.2-android.jar;C:\Users\MangalamadakaSreenat\.m2\repository\com\google\guava\failureaccess\1.0.1\failureaccess-1.0.1.jar;C:\Users\MangalamadakaSreenat\.m2\repository\com\google\guava\listenablefuture\9999.0-empty-to-avoid-conflict-with-guava\listenablefuture-9999.0-empty-to-avoid-conflict-with-guava.jar;C:\Users\MangalamadakaSreenat\.m2\repository\org\checkerframework\checker-compat-qual\2.5.5\checker-compat-qual-2.5.5.jar;C:\Users\MangalamadakaSreenat\.m2\repository\com\google\errorprone\error_prone_annotations\2.3.4\error_prone_annotations-2.3.4.jar;C:\Users\MangalamadakaSreenat\.m2\repository\com\google\j2objc\j2objc-annotations\1.3\j2objc-annotations-1.3.jar;C:\Users\MangalamadakaSreenat\.m2\repository\com\github\java-json-tools\jackson-coreutils-equivalence\1.0\jackson-coreutils-equivalence-1.0.jar;C:\Users\MangalamadakaSreenat\.m2\repository\com\fasterxml\jackson\core\jackson-databind\2.11.0\jackson-databind-2.11.0.jar;C:\Users\MangalamadakaSreenat\.m2\repository\com\fasterxml\jackson\core\jackson-annotations\2.11.0\jackson-annotations-2.11.0.jar;C:\Users\MangalamadakaSreenat\.m2\repository\com\github\java-json-tools\jackson-coreutils\2.0\jackson-coreutils-2.0.jar;C:\Users\MangalamadakaSreenat\.m2\repository\com\github\java-json-tools\msg-simple\1.2\msg-simple-1.2.jar;C:\Users\MangalamadakaSreenat\.m2\repository\com\github\java-json-tools\btf\1.3\btf-1.3.jar;C:\Users\MangalamadakaSreenat\.m2\repository\com\github\java-json-tools\json-schema-core\1.2.14\json-schema-core-1.2.14.jar;C:\Users\MangalamadakaSreenat\.m2\repository\com\github\java-json-tools\uri-template\0.10\uri-template-0.10.jar;C:\Users\MangalamadakaSreenat\.m2\repository\org\mozilla\rhino\1.7.7.2\rhino-1.7.7.2.jar;C:\Users\MangalamadakaSreenat\.m2\repository\com\sun\mail\mailapi\1.6.2\mailapi-1.6.2.jar;C:\Users\MangalamadakaSreenat\.m2\repository\joda-time\joda-time\2.10.5\joda-time-2.10.5.jar;C:\Users\MangalamadakaSreenat\.m2\repository\com\googlecode\libphonenumber\libphonenumber\8.11.1\libphonenumber-8.11.1.jar;C:\Users\MangalamadakaSreenat\.m2\repository\com\google\code\findbugs\jsr305\3.0.2\jsr305-3.0.2.jar;C:\Users\MangalamadakaSreenat\.m2\repository\net\sf\jopt-simple\jopt-simple\5.0.4\jopt-simple-5.0.4.jar;C:\Users\MangalamadakaSreenat\.m2\repository\com\googlecode\json-simple\json-simple\1.1.1\json-simple-1.1.1.jar;C:\Users\MangalamadakaSreenat\.m2\repository\junit\junit\4.10\junit-4.10.jar;C:\Users\MangalamadakaSreenat\.m2\repository\org\hamcrest\hamcrest-core\1.1\hamcrest-core-1.1.jar;C:\Users\MangalamadakaSreenat\.m2\repository\com\fasterxml\jackson\core\jackson-core\2.17.0\jackson-core-2.17.0.jar;C:\Users\MangalamadakaSreenat\.m2\repository\org\apache\poi\poi\5.2.5\poi-5.2.5.jar;C:\Users\MangalamadakaSreenat\.m2\repository\commons-codec\commons-codec\1.16.0\commons-codec-1.16.0.jar;C:\Users\MangalamadakaSreenat\.m2\repository\org\apache\commons\commons-collections4\4.4\commons-collections4-4.4.jar;C:\Users\MangalamadakaSreenat\.m2\repository\org\apache\commons\commons-math3\3.6.1\commons-math3-3.6.1.jar;C:\Users\MangalamadakaSreenat\.m2\repository\commons-io\commons-io\2.15.0\commons-io-2.15.0.jar;C:\Users\MangalamadakaSreenat\.m2\repository\com\zaxxer\SparseBitSet\1.3\SparseBitSet-1.3.jar;C:\Users\MangalamadakaSreenat\.m2\repository\org\apache\logging\log4j\log4j-api\2.21.1\log4j-api-2.21.1.jar;C:\Users\MangalamadakaSreenat\.m2\repository\org\apache\poi\poi-ooxml\5.2.5\poi-ooxml-5.2.5.jar;C:\Users\MangalamadakaSreenat\.m2\repository\org\apache\poi\poi-ooxml-lite\5.2.5\poi-ooxml-lite-5.2.5.jar;C:\Users\MangalamadakaSreenat\.m2\repository\org\apache\xmlbeans\xmlbeans\5.2.0\xmlbeans-5.2.0.jar;C:\Users\MangalamadakaSreenat\.m2\repository\org\apache\commons\commons-compress\1.25.0\commons-compress-1.25.0.jar;C:\Users\MangalamadakaSreenat\.m2\repository\com\github\virtuald\curvesapi\1.08\curvesapi-1.08.jar;C:\Users\MangalamadakaSreenat\.m2\repository\org\testng\testng\7.7.1\testng-7.7.1.jar;C:\Users\MangalamadakaSreenat\.m2\repository\org\slf4j\slf4j-api\1.7.36\slf4j-api-1.7.36.jar;C:\Users\MangalamadakaSreenat\.m2\repository\com\beust\jcommander\1.82\jcommander-1.82.jar;C:\Users\MangalamadakaSreenat\.m2\repository\org\webjars\jquery\3.6.1\jquery-3.6.1.jar;"/>
    <property name="sun.cpu.endian" value="little"/>
    <property name="user.home" value="C:\Users\MangalamadakaSreenat"/>
    <property name="user.language" value="en"/>
    <property name="java.specification.vendor" value="Oracle Corporation"/>
    <property name="java.version.date" value="2025-07-15"/>
    <property name="java.home" value="C:\Program Files\Java\jdk-21"/>
    <property name="file.separator" value="\"/>
    <property name="basedir" value="C:\Users\MangalamadakaSreenat\eclipse-workspace\GraphQLPractice"/>
    <property name="java.vm.compressedOopsMode" value="Zero based"/>
    <property name="line.separator" value="&#10;"/>
    <property name="java.vm.specification.vendor" value="Oracle Corporation"/>
    <property name="java.specification.name" value="Java Platform API Specification"/>
    <property name="surefire.real.class.path" value="C:\Users\MangalamadakaSreenat\AppData\Local\Temp\surefire16041507773217144198\surefirebooter-20250926130418254_3.jar"/>
    <property name="user.script" value=""/>
    <property name="sun.management.compiler" value="HotSpot 64-Bit Tiered Compilers"/>
    <property name="java.runtime.version" value="21.0.8+12-LTS-250"/>
    <property name="user.name" value="MangalamadakaSreenat"/>
    <property name="stdout.encoding" value="Cp1252"/>
    <property name="path.separator" value=";"/>
    <property name="os.version" value="10.0"/>
    <property name="java.runtime.name" value="Java(TM) SE Runtime Environment"/>
    <property name="file.encoding" value="UTF-8"/>
    <property name="java.vm.name" value="Java HotSpot(TM) 64-Bit Server VM"/>
    <property name="localRepository" value="C:\Users\MangalamadakaSreenat\.m2\repository"/>
    <property name="java.vendor.url.bug" value="https://bugreport.java.com/bugreport/"/>
    <property name="java.io.tmpdir" value="C:\Users\MANGAL~1\AppData\Local\Temp\"/>
    <property name="java.version" value="21.0.8"/>
    <property name="user.dir" value="C:\Users\MangalamadakaSreenat\eclipse-workspace\GraphQLPractice"/>
    <property name="os.arch" value="amd64"/>
    <property name="java.vm.specification.name" value="Java Virtual Machine Specification"/>
    <property name="sun.os.patch.level" value=""/>
    <property name="native.encoding" value="Cp1252"/>
    <property name="java.library.path" value="C:\Program Files\Java\jdk-21\bin;C:\WINDOWS\Sun\Java\bin;C:\WINDOWS\system32;C:\WINDOWS;C:\Users\MangalamadakaSreenat\Downloads\maven-mvnd-1.0.3-windows-amd64\maven-mvnd-1.0.3-windows-amd64\mvn/bin;C:\Program Files\Java\jdk-21/bin;C:\Program Files\Java\jdk-21/bin;C:\Program Files\Common Files\Oracle\Java\javapath;C:\WINDOWS\system32;C:\WINDOWS;C:\WINDOWS\System32\Wbem;C:\WINDOWS\System32\WindowsPowerShell\v1.0\;C:\WINDOWS\System32\OpenSSH\;C:\Program Files\Java\jdk-21\bin;C:\Users\MangalamadakaSreenat\Downloads\maven-mvnd-1.0.3-windows-amd64\maven-mvnd-1.0.3-windows-amd64\mvn\bin;C:\Users\MangalamadakaSreenat\AppData\Local\Microsoft\WindowsApps;;."/>
    <property name="java.vm.info" value="mixed mode, sharing"/>
    <property name="stderr.encoding" value="Cp1252"/>
    <property name="java.vendor" value="Oracle Corporation"/>
    <property name="java.vm.version" value="21.0.8+12-LTS-250"/>
    <property name="sun.io.unicode.encoding" value="UnicodeLittle"/>
    <property name="java.class.version" value="65.0"/>
  </properties>
  <testcase name="testWithVariables[IN](1)" classname="demo.GraphqlQueryCalls" time="5.327">
    <system-out><![CDATA[Request method:	POST
Request URI:	https://countries.trevorblades.com/
Proxy:			<none>
Request params:	<none>
Query params:	<none>
Form params:	<none>
Path params:	<none>
Headers:		Accept=application/json, application/javascript, text/javascript, text/json
				Content-Type=application/json
Cookies:		<none>
Multiparts:		<none>
Body:
{
    "query": "query getCountry($countryCode: ID!){\n    country(code: $countryCode) {\n        name\n        capital\n    }\n}\n",
    "variables": {
        "countryCode": "IN"
    },
    "operationName": "getCountry"
}
HTTP/1.1 200 
Connection: keep-alive
Content-Length: 82
x-served-by: cache-sin-wsss1830023-SIN
accept-ranges: bytes
date: Fri, 26 Sep 2025 07:29:19 GMT
content-type: application/json; charset=utf-8
access-control-max-age: 600
vary: accept-encoding
access-control-expose-headers: *
access-control-allow-credentials: true
alt-svc: h3=":443"; ma=86400
access-control-allow-methods: POST, GET, HEAD, OPTIONS
access-control-allow-headers: *
access-control-allow-origin: *
x-powered-by: Stellate
age: 307
cache-control: public, s-maxage=2628000, stale-while-revalidate=2628000
x-cache: HIT
x-cache-hits: 2
gcdn-cache: HIT
stellate-rate-limit-budget-remaining: 49
stellate-rate-limit-rules: "IP limit";type="RequestCount";budget=50;limited=?0;remaining=49;refill=60
stellate-rate-limit-decision: pass
stellate-rate-limit-budget-required: 6
content-encoding: gzip

{
    "data": {
        "country": {
            "capital": "New Delhi",
            "name": "India"
        }
    }
}
]]></system-out>
    <system-err><![CDATA[SLF4J: Failed to load class "org.slf4j.impl.StaticLoggerBinder".
SLF4J: Defaulting to no-operation (NOP) logger implementation
SLF4J: See http://www.slf4j.org/codes.html#StaticLoggerBinder for further details.
]]></system-err>
  </testcase>
  <testcase name="testWithVariables[US](2)" classname="demo.GraphqlQueryCalls" time="0.534">
    <system-out><![CDATA[Request method:	POST
Request URI:	https://countries.trevorblades.com/
Proxy:			<none>
Request params:	<none>
Query params:	<none>
Form params:	<none>
Path params:	<none>
Headers:		Accept=application/json, application/javascript, text/javascript, text/json
				Content-Type=application/json
Cookies:		<none>
Multiparts:		<none>
Body:
{
    "query": "query getCountry($countryCode: ID!){\n    country(code: $countryCode) {\n        name\n        capital\n    }\n}\n",
    "variables": {
        "countryCode": "US"
    },
    "operationName": "getCountry"
}
HTTP/1.1 200 
Connection: keep-alive
Content-Length: 96
x-served-by: cache-sin-wsss1830078-SIN
accept-ranges: bytes
date: Fri, 26 Sep 2025 07:29:19 GMT
content-type: application/json; charset=utf-8
access-control-max-age: 600
vary: accept-encoding
access-control-expose-headers: *
access-control-allow-credentials: true
alt-svc: h3=":443"; ma=86400
access-control-allow-methods: POST, GET, HEAD, OPTIONS
access-control-allow-headers: *
access-control-allow-origin: *
x-powered-by: Stellate
age: 308
cache-control: public, s-maxage=2628000, stale-while-revalidate=2628000
x-cache: HIT
x-cache-hits: 2
gcdn-cache: HIT
stellate-rate-limit-budget-remaining: 48
stellate-rate-limit-rules: "IP limit";type="RequestCount";budget=50;limited=?0;remaining=48;refill=60
stellate-rate-limit-decision: pass
stellate-rate-limit-budget-required: 6
content-encoding: gzip

{
    "data": {
        "country": {
            "capital": "Washington D.C.",
            "name": "United States"
        }
    }
}
]]></system-out>
  </testcase>
  <testcase name="testXLData[IN, India](1)" classname="demo.GraphqlQueryCalls" time="1.882">
    <system-out><![CDATA[HTTP/1.1 200 
Connection: keep-alive
Content-Length: 82
x-served-by: cache-sin-wsss1830093-SIN
accept-ranges: bytes
date: Fri, 26 Sep 2025 07:29:19 GMT
content-type: application/json; charset=utf-8
access-control-max-age: 600
vary: accept-encoding
access-control-expose-headers: *
access-control-allow-credentials: true
alt-svc: h3=":443"; ma=86400
access-control-allow-methods: POST, GET, HEAD, OPTIONS
access-control-allow-headers: *
access-control-allow-origin: *
x-powered-by: Stellate
age: 310
cache-control: public, s-maxage=2628000, stale-while-revalidate=2628000
x-cache: HIT
x-cache-hits: 3
gcdn-cache: HIT
stellate-rate-limit-budget-remaining: 47
stellate-rate-limit-rules: "IP limit";type="RequestCount";budget=50;limited=?0;remaining=47;refill=57
stellate-rate-limit-decision: pass
stellate-rate-limit-budget-required: 6
content-encoding: gzip

{
    "data": {
        "country": {
            "capital": "New Delhi",
            "name": "India"
        }
    }
}
]]></system-out>
    <system-err><![CDATA[ERROR StatusLogger Log4j2 could not find a logging implementation. Please add log4j-core to the classpath. Using SimpleLogger to log to the console...
]]></system-err>
  </testcase>
  <testcase name="testXLData[US, United States](2)" classname="demo.GraphqlQueryCalls" time="0.577">
    <system-out><![CDATA[HTTP/1.1 200 
Connection: keep-alive
Content-Length: 96
x-served-by: cache-sin-wsss1830028-SIN
accept-ranges: bytes
date: Fri, 26 Sep 2025 07:29:19 GMT
content-type: application/json; charset=utf-8
access-control-max-age: 600
vary: accept-encoding
access-control-expose-headers: *
access-control-allow-credentials: true
alt-svc: h3=":443"; ma=86400
access-control-allow-methods: POST, GET, HEAD, OPTIONS
access-control-allow-headers: *
access-control-allow-origin: *
x-powered-by: Stellate
age: 312
cache-control: public, s-maxage=2628000, stale-while-revalidate=2628000
x-cache: HIT
x-cache-hits: 3
gcdn-cache: HIT
stellate-rate-limit-budget-remaining: 46
stellate-rate-limit-rules: "IP limit";type="RequestCount";budget=50;limited=?0;remaining=46;refill=55
stellate-rate-limit-decision: pass
stellate-rate-limit-budget-required: 6
content-encoding: gzip

{
    "data": {
        "country": {
            "capital": "Washington D.C.",
            "name": "United States"
        }
    }
}
]]></system-out>
  </testcase>
  <testcase name="testXLData[FR, France](3)" classname="demo.GraphqlQueryCalls" time="0.355">
    <system-out><![CDATA[HTTP/1.1 200 
Connection: keep-alive
Content-Length: 79
x-served-by: cache-sin-wsss1830036-SIN
accept-ranges: bytes
date: Fri, 26 Sep 2025 07:29:23 GMT
content-type: application/json; charset=utf-8
access-control-max-age: 600
vary: accept-encoding
access-control-expose-headers: *
access-control-allow-credentials: true
alt-svc: h3=":443"; ma=86400
access-control-allow-methods: POST, GET, HEAD, OPTIONS
access-control-allow-headers: *
access-control-allow-origin: *
x-powered-by: Stellate
age: 308
cache-control: public, s-maxage=2628000, stale-while-revalidate=2628000
x-cache: HIT
x-cache-hits: 1
gcdn-cache: HIT
stellate-rate-limit-budget-remaining: 45
stellate-rate-limit-rules: "IP limit";type="RequestCount";budget=50;limited=?0;remaining=45;refill=55
stellate-rate-limit-decision: pass
stellate-rate-limit-budget-required: 6
content-encoding: gzip

{
    "data": {
        "country": {
            "capital": "Paris",
            "name": "France"
        }
    }
}
]]></system-out>
  </testcase>
  <testcase name="testXLData[AU, Australia](4)" classname="demo.GraphqlQueryCalls" time="0.382">
    <system-out><![CDATA[HTTP/1.1 200 
Connection: keep-alive
Content-Length: 85
x-served-by: cache-sin-wsss1830021-SIN
accept-ranges: bytes
date: Fri, 26 Sep 2025 07:29:24 GMT
content-type: application/json; charset=utf-8
access-control-max-age: 600
vary: accept-encoding
access-control-expose-headers: *
access-control-allow-credentials: true
alt-svc: h3=":443"; ma=86400
access-control-allow-methods: POST, GET, HEAD, OPTIONS
access-control-allow-headers: *
access-control-allow-origin: *
x-powered-by: Stellate
age: 307
cache-control: public, s-maxage=2628000, stale-while-revalidate=2628000
x-cache: HIT
x-cache-hits: 1
gcdn-cache: HIT
stellate-rate-limit-budget-remaining: 44
stellate-rate-limit-rules: "IP limit";type="RequestCount";budget=50;limited=?0;remaining=44;refill=55
stellate-rate-limit-decision: pass
stellate-rate-limit-budget-required: 6
content-encoding: gzip

{
    "data": {
        "country": {
            "capital": "Canberra",
            "name": "Australia"
        }
    }
}
]]></system-out>
  </testcase>
  <testcase name="testPojoForCountry" classname="demo.PojoCalls" time="1.429">
    <system-out><![CDATA[HTTP/1.1 200 
Connection: keep-alive
Content-Length: 97
x-served-by: cache-sin-wsss1830082-SIN
accept-ranges: bytes
date: Fri, 26 Sep 2025 07:29:24 GMT
content-type: application/json; charset=utf-8
access-control-max-age: 600
server-timing: cfL4;desc="?proto=TCP&rtt=1117&min_rtt=1112&rtt_var=420&sent=5&recv=6&lost=0&retrans=0&sent_bytes=2864&recv_bytes=1635&delivery_rate=3636690&cwnd=252&unsent_bytes=0&cid=1f73a4a4c03bae6f&ts=135&x=0"
access-control-expose-headers: *
access-control-allow-credentials: true
vary: Accept-Encoding
access-control-allow-methods: POST, GET, HEAD, OPTIONS
access-control-allow-headers: *
alt-svc: h3=":443"; ma=86400
access-control-allow-origin: *
x-powered-by: Stellate
age: 309
cache-control: public, s-maxage=2628000, stale-while-revalidate=2628000
x-cache: HIT
x-cache-hits: 1
gcdn-cache: HIT
stellate-rate-limit-budget-remaining: 43
stellate-rate-limit-rules: "IP limit";type="RequestCount";budget=50;limited=?0;remaining=43;refill=53
stellate-rate-limit-decision: pass
stellate-rate-limit-budget-required: 7
content-encoding: gzip

{
    "data": {
        "country": {
            "code": "US",
            "capital": "Washington D.C.",
            "name": "United States"
        }
    }
}
]]></system-out>
  </testcase>
  <testcase name="test1" classname="demo.SampleTesting" time="0.882">
    <system-out><![CDATA[{
    "page": 2,
    "per_page": 6,
    "total": 12,
    "total_pages": 2,
    "data": [
        {
            "id": 7,
            "email": "michael.lawson@reqres.in",
            "first_name": "Michael",
            "last_name": "Lawson",
            "avatar": "https://reqres.in/img/faces/7-image.jpg"
        },
        {
            "id": 8,
            "email": "lindsay.ferguson@reqres.in",
            "first_name": "Lindsay",
            "last_name": "Ferguson",
            "avatar": "https://reqres.in/img/faces/8-image.jpg"
        },
        {
            "id": 9,
            "email": "tobias.funke@reqres.in",
            "first_name": "Tobias",
            "last_name": "Funke",
            "avatar": "https://reqres.in/img/faces/9-image.jpg"
        },
        {
            "id": 10,
            "email": "byron.fields@reqres.in",
            "first_name": "Byron",
            "last_name": "Fields",
            "avatar": "https://reqres.in/img/faces/10-image.jpg"
        },
        {
            "id": 11,
            "email": "george.edwards@reqres.in",
            "first_name": "George",
            "last_name": "Edwards",
            "avatar": "https://reqres.in/img/faces/11-image.jpg"
        },
        {
            "id": 12,
            "email": "rachel.howell@reqres.in",
            "first_name": "Rachel",
            "last_name": "Howell",
            "avatar": "https://reqres.in/img/faces/12-image.jpg"
        }
    ],
    "support": {
        "url": "https://contentcaddy.io?utm_source=reqres&utm_medium=json&utm_campaign=referral",
        "text": "Tired of writing endless social media content? Let Content Caddy generate it for you."
    }
}
]]></system-out>
  </testcase>
  <testcase name="testGet" classname="demo.SampleTesting" time="0.414">
    <system-out><![CDATA[HTTP/1.1 200 OK
]]></system-out>
  </testcase>
  <testcase name="testPost" classname="demo.SampleTesting" time="1.866">
    <system-out><![CDATA[HTTP/1.1 200 OK
Date: Fri, 26 Sep 2025 07:34:35 GMT
Content-Type: application/json
Transfer-Encoding: chunked
Connection: keep-alive
Access-Control-Allow-Origin: *
Access-Control-Allow-Methods: GET, POST, DELETE, PUT
Access-Control-Allow-Headers: Content-Type, api_key, Authorization
Server: Jetty(9.2.9.v20150224)

{
    "id": 9223372036854775807,
    "category": {
        "id": 0,
        "name": "string"
    },
    "name": "Tiger",
    "photoUrls": [
        "string"
    ],
    "tags": [
        {
            "id": 0,
            "name": "string"
        }
    ],
    "status": "available"
}
]]></system-out>
  </testcase>
</testsuite>